hardware/cpu/pipeline.vcd
$date
   Thu Apr  2 16:36:59 2026
$end

$version
  2025.2
  $dumpfile ("pipeline.vcd") 
$end

$timescale
  1ps
$end

$scope module tb_pipeline $end
$var reg 1 ! clk $end
$var reg 1 " reset $end
$var wire 32 # inst_mem_read_data [31:0] $end
$var wire 1 $ inst_mem_is_valid $end
$var wire 32 % dmem_read_data [31:0] $end
$var wire 1 & dmem_write_valid $end
$var wire 1 ' dmem_read_valid $end
$var wire 1 ( exception $end
$var wire 32 ) pc_out [31:0] $end
$scope module DUT $end
$var wire 1 * clk $end
$var wire 1 + reset $end
$var wire 1 , stall $end
$var wire 1 ( exception $end
$var wire 32 ) pc_out [31:0] $end
$var wire 1 $ inst_mem_is_valid $end
$var wire 32 # inst_mem_read_data [31:0] $end
$var wire 32 % dmem_read_data_temp [31:0] $end
$var wire 1 & dmem_write_valid $end
$var wire 1 ' dmem_read_valid $end
$var wire 32 - dmem_read_data [31:0] $end
$var wire 1 . dmem_write_ready $end
$var wire 1 / dmem_read_ready $end
$var wire 32 0 dmem_write_address [31:0] $end
$var wire 32 1 dmem_read_address [31:0] $end
$var wire 2 2 dmem_read_offset [1:0] $end
$var wire 32 3 dmem_write_data [31:0] $end
$var wire 4 4 dmem_write_byte [3:0] $end
$var wire 1 5 inst_mem_is_ready $end
$var wire 1 6 dmem_read_valid_checker $end
$var reg 32 7 immediate [31:0] $end
$var wire 1 8 immediate_sel $end
$var wire 5 9 src1_select [4:0] $end
$var wire 5 : src2_select [4:0] $end
$var wire 5 ; dest_reg_sel [4:0] $end
$var wire 3 < alu_operation [2:0] $end
$var wire 1 = arithsubtype $end
$var wire 1 > mem_write $end
$var wire 1 ? mem_to_reg $end
$var wire 1 @ illegal_inst $end
$var wire 32 A execute_immediate [31:0] $end
$var wire 1 B alu $end
$var wire 1 C lui $end
$var wire 1 D jal $end
$var wire 1 E jalr $end
$var wire 1 F branch $end
$var wire 1 G stall_read $end
$var wire 32 H instruction [31:0] $end
$var wire 32 I reg_rdata2 [31:0] $end
$var wire 32 J reg_rdata1 [31:0] $end
$var wire 1 K alu_busy $end
$var wire 1 L combined_stall $end
$var wire 32 M pc [31:0] $end
$var wire 32 N inst_fetch_pc [31:0] $end
$var reg 32 O fetch_pc [31:0] $end
$var wire 1 P wb_stall_first $end
$var wire 1 Q wb_stall_second $end
$var wire 1 R wb_stall $end
$var wire 32 S next_pc [31:0] $end
$var wire 32 T write_address [31:0] $end
$var wire 1 U branch_taken $end
$var wire 1 V branch_stall $end
$var wire 32 W alu_operand1 [31:0] $end
$var wire 32 X alu_operand2 [31:0] $end
$var wire 1 Y wb_alu_to_reg $end
$var wire 32 Z wb_result [31:0] $end
$var wire 3 [ wb_alu_operation [2:0] $end
$var wire 1 \ wb_mem_write $end
$var wire 1 ] wb_mem_to_reg $end
$var wire 5 ^ wb_dest_reg_sel [4:0] $end
$var wire 1 _ wb_branch $end
$var wire 1 ` wb_branch_nxt $end
$var wire 32 a wb_write_address [31:0] $end
$var wire 2 b wb_read_address [1:0] $end
$var wire 4 c wb_write_byte [3:0] $end
$var wire 32 d wb_write_data [31:0] $end
$var wire 32 e wb_read_data [31:0] $end
$var wire 32 f inst_mem_address [31:0] $end
$var wire 1 g is_mext $end
$var integer 32 h i [31:0] $end
$scope module IF_ID_stage $end
$var wire 1 * clk $end
$var wire 1 + reset $end
$var wire 1 , stall $end
$var reg 1 i exception $end
$var wire 1 $ inst_mem_is_valid $end
$var wire 32 # inst_mem_read_data [31:0] $end
$var wire 1 G stall_read_i $end
$var wire 32 N inst_fetch_pc [31:0] $end
$var wire 32 H instruction_i [31:0] $end
$var wire 1 R wb_stall $end
$var wire 1 Y wb_alu_to_reg $end
$var wire 1 ] wb_mem_to_reg $end
$var wire 5 ^ wb_dest_reg_sel [4:0] $end
$var wire 32 Z wb_result [31:0] $end
$var wire 32 e wb_read_data [31:0] $end
$var wire 2 j inst_mem_offset [1:0] $end
$var wire 32 A execute_immediate_w [31:0] $end
$var wire 1 8 immediate_sel_w $end
$var wire 1 B alu_w $end
$var wire 1 C lui_w $end
$var wire 1 D jal_w $end
$var wire 1 E jalr_w $end
$var wire 1 F branch_w $end
$var wire 1 > mem_write_w $end
$var wire 1 ? mem_to_reg_w $end
$var wire 1 = arithsubtype_w $end
$var wire 32 M pc_w [31:0] $end
$var wire 5 9 src1_select_w [4:0] $end
$var wire 5 : src2_select_w [4:0] $end
$var wire 5 ; dest_reg_sel_w [4:0] $end
$var wire 3 < alu_operation_w [2:0] $end
$var wire 1 @ illegal_inst_w $end
$var wire 1 g is_mext_w $end
$var wire 32 H instruction_o [31:0] $end
$var reg 32 k immediate [31:0] $end
$var reg 1 l illegal_inst $end
$var reg 32 m saved_instruction [31:0] $end
$var reg 1 n has_saved_inst $end
$scope module u_id_ex $end
$var wire 1 * clk $end
$var wire 1 + reset_n $end
$var wire 1 G stall_n $end
$var wire 32 o immediate_i [31:0] $end
$var wire 1 p immediate_sel_i $end
$var wire 1 q alu_i $end
$var wire 1 r lui_i $end
$var wire 1 s jal_i $end
$var wire 1 t jalr_i $end
$var wire 1 u branch_i $end
$var wire 1 v mem_write_i $end
$var wire 1 w mem_to_reg_i $end
$var wire 1 x arithsubtype_i $end
$var wire 32 N pc_i [31:0] $end
$var wire 5 y src1_sel_i [19:15] $end
$var wire 5 z src2_sel_i [24:20] $end
$var wire 5 { dest_reg_sel_i [11:7] $end
$var wire 3 | alu_op_i [14:12] $end
$var wire 1 } illegal_inst_i $end
$var wire 1 ~ is_mext_i $end
$var reg 32 !! execute_immediate_o [31:0] $end
$var reg 1 "! immediate_sel_o $end
$var reg 1 #! alu_o $end
$var reg 1 $! lui_o $end
$var reg 1 %! jal_o $end
$var reg 1 &! jalr_o $end
$var reg 1 '! branch_o $end
$var reg 1 (! mem_write_o $end
$var reg 1 )! mem_to_reg_o $end
$var reg 1 *! arithsubtype_o $end
$var reg 32 +! pc_o [31:0] $end
$var reg 5 ,! src1_sel_o [4:0] $end
$var reg 5 -! src2_sel_o [4:0] $end
$var reg 5 .! dest_reg_sel_o [4:0] $end
$var reg 3 /! alu_op_o [2:0] $end
$var reg 1 0! illegal_inst_o $end
$var reg 1 1! is_mext_o $end
$upscope $end
$upscope $end
$scope module u_hazard $end
$var wire 1 , external_stall $end
$var wire 1 K alu_busy $end
$var wire 1 L combined_stall $end
$upscope $end
$scope module execute $end
$var wire 1 * clk $end
$var wire 1 + reset $end
$var wire 32 J reg_rdata1 [31:0] $end
$var wire 32 I reg_rdata2 [31:0] $end
$var wire 32 A execute_imm [31:0] $end
$var wire 32 M pc [31:0] $end
$var wire 32 2! fetch_pc [31:0] $end
$var wire 1 8 immediate_sel $end
$var wire 1 > mem_write $end
$var wire 1 D jal $end
$var wire 1 E jalr $end
$var wire 1 C lui $end
$var wire 1 B alu $end
$var wire 1 F branch $end
$var wire 1 = arithsubtype $end
$var wire 1 ? mem_to_reg $end
$var wire 1 G stall_read $end
$var wire 5 ; dest_reg_sel [4:0] $end
$var wire 3 < alu_op [2:0] $end
$var wire 2 3! dmem_raddr [1:0] $end
$var wire 1 g is_mext_i $end
$var wire 1 _ wb_branch_i $end
$var wire 1 ` wb_branch_nxt_i $end
$var wire 32 W alu_operand1 [31:0] $end
$var wire 32 X alu_operand2 [31:0] $end
$var wire 32 T write_address [31:0] $end
$var wire 1 V branch_stall $end
$var reg 32 4! next_pc [31:0] $end
$var reg 1 5! branch_taken $end
$var wire 32 Z wb_result [31:0] $end
$var wire 1 \ wb_mem_write $end
$var wire 1 Y wb_alu_to_reg $end
$var wire 5 ^ wb_dest_reg_sel [4:0] $end
$var wire 1 _ wb_branch $end
$var wire 1 ` wb_branch_nxt $end
$var wire 1 ] wb_mem_to_reg $end
$var wire 2 b wb_read_address [1:0] $end
$var wire 3 [ mem_alu_operation [2:0] $end
$var wire 1 K alu_busy_o $end
$var reg 32 6! ex_result [31:0] $end
$var wire 33 7! ex_result_subs [32:0] $end
$var wire 33 8! ex_result_subu [32:0] $end
$var wire 32 9! rv32m_result [31:0] $end
$scope module u_hw_math $end
$var wire 1 * clk $end
$var wire 1 + reset_n $end
$var wire 1 g start $end
$var wire 3 < funct3 [2:0] $end
$var wire 32 J operand1 [31:0] $end
$var wire 32 I operand2 [31:0] $end
$var wire 32 9! result [31:0] $end
$var wire 1 K busy $end
$var reg 1 :! valid $end
$var wire 1 ;! is_mul $end
$var wire 33 <! mul_a [32:0] $end
$var wire 33 =! mul_b [32:0] $end
$var wire 66 >! full_product [65:0] $end
$var wire 32 ?! mul_result [31:0] $end
$var wire 1 @! is_div $end
$var reg 2 A! state [1:0] $end
$var reg 5 B! counter [4:0] $end
$var reg 32 C! quotient [31:0] $end
$var reg 32 D! divisor [31:0] $end
$var reg 33 E! remainder [32:0] $end
$var reg 1 F! invert_quotient $end
$var reg 1 G! invert_remainder $end
$var reg 1 H! is_rem $end
$var reg 1 I! div_by_zero $end
$var wire 1 J! combinational_busy $end
$upscope $end
$scope module u_ex_mem_wb $end
$var wire 1 * clk $end
$var wire 1 + reset_n $end
$var wire 1 G stall_n $end
$var wire 32 K! ex_result [31:0] $end
$var wire 1 L! mem_write $end
$var wire 1 M! alu_to_reg $end
$var wire 5 ; dest_reg_sel [4:0] $end
$var wire 1 5! branch_taken $end
$var wire 1 ? mem_to_reg $end
$var wire 2 3! read_address [1:0] $end
$var wire 3 < alu_operation [2:0] $end
$var reg 32 N! ex_mem_result [31:0] $end
$var reg 1 O! ex_mem_mem_write $end
$var reg 1 P! ex_mem_alu_to_reg $end
$var reg 5 Q! ex_mem_dest_reg_sel [4:0] $end
$var reg 1 R! ex_mem_branch $end
$var reg 1 S! ex_mem_branch_nxt $end
$var reg 1 T! ex_mem_mem_to_reg $end
$var reg 2 U! ex_mem_read_address [1:0] $end
$var reg 3 V! ex_mem_alu_operation [2:0] $end
$upscope $end
$upscope $end
$scope module wb_stage $end
$var wire 1 * clk $end
$var wire 1 + reset $end
$var wire 1 G stall_read_i $end
$var wire 32 W! fetch_pc_i [31:0] $end
$var wire 1 _ wb_branch_i $end
$var wire 1 ] wb_mem_to_reg_i $end
$var wire 1 X! mem_write_i $end
$var wire 32 T write_address_i [31:0] $end
$var wire 32 X alu_operand2_i [31:0] $end
$var wire 3 < alu_operation_i [2:0] $end
$var wire 3 [ wb_alu_operation_i [2:0] $end
$var wire 2 b wb_read_address_i [1:0] $end
$var wire 32 - dmem_read_data_i [31:0] $end
$var wire 1 & dmem_write_valid_i $end
$var wire 32 f inst_mem_address_o [31:0] $end
$var wire 1 5 inst_mem_is_ready_o $end
$var wire 1 R wb_stall_o $end
$var reg 32 Y! wb_write_address_o [31:0] $end
$var reg 32 Z! wb_write_data_o [31:0] $end
$var reg 4 [! wb_write_byte_o [3:0] $end
$var reg 32 \! wb_read_data_o [31:0] $end
$var reg 32 ]! inst_fetch_pc_o [31:0] $end
$var reg 1 ^! wb_stall_first_o $end
$var reg 1 _! wb_stall_second_o $end
$upscope $end
$upscope $end
$scope module IMEM $end
$var wire 1 `! clk $end
$var wire 32 a! pc [31:0] $end
$var reg 32 b! instr [31:0] $end
$upscope $end
$scope module DMEM $end
$var wire 1 c! clk $end
$var wire 1 d! re $end
$var wire 32 e! raddr [31:0] $end
$var reg 32 f! rdata [31:0] $end
$var wire 1 g! we $end
$var wire 32 h! waddr [31:0] $end
$var wire 32 i! wdata [31:0] $end
$var wire 4 j! wstrb [3:0] $end
$var wire 10 k! rindex [9:0] $end
$var wire 10 l! windex [9:0] $end
$upscope $end
$upscope $end
$enddefinitions $end

#0
$dumpvars
0!
b0 !!
0"
0"!
bx #
0#!
1$
0$!
bx %
0%!
1&
0&!
1'
0'!
0(
0(!
b0 )
0)!
0*
0*!
0+
b0 +!
0,
b0 ,!
bx -
b0 -!
0.
b0 .!
0/
b0 /!
b0 0
00!
b0 1
01!
b0 2
b0 2!
b0 3
b0 3!
b0 4
b100 4!
05
05!
16
bx 6!
bx 7
b0 7!
08
b100000000000000000000000000000000 8!
b0 9
b0 9!
b0 :
0:!
b0 ;
1;!
b0 <
b0 <!
0=
b0 =!
0>
b0 >!
0?
b0 ?!
0@
0@!
b0 A
b0 A!
0B
b0 B!
0C
b0 C!
0D
b0 D!
0E
b0 E!
0F
0F!
1G
0G!
b10011 H
0H!
b0 I
0I!
b0 J
0J!
0K
bx K!
0L
0L!
b0 M
0M!
b0 N
b0 N!
b0 O
0O!
0P
0P!
0Q
b0 Q!
0R
0R!
b100 S
0S!
b0 T
0T!
0U
b0 U!
0V
b0 V!
b0 W
b0 W!
b0 X
0X!
0Y
b0 Y!
b0 Z
b0 Z!
b0 [
b0 [!
0\
bx \!
0]
b0 ]!
b0 ^
0^!
0_
0_!
0`
0`!
b0 a
b0 a!
b0 b
bx b!
b0 c
0c!
b0 d
0d!
bx e
b0 e!
b0 f
bx f!
0g
0g!
bx h
b0 h!
0i
b0 i!
b0 j
b0 j!
b0 k
b0 k!
0l
b0 l!
b10011 m
0n
b0 o
1p
1q
0r
0s
0t
0u
0v
0w
0x
b0 y
b0 z
b0 {
b0 |
0}
0~
$end

#5000
1!
b111100000000000010010011 #
1*
1`!
b111100000000000010010011 b!
1c!

#10000
0!
1"
0*
1+
15
0G
b111100000000000010010011 H
0`!
0c!
b1111 k
b1111 o
b0 y
b1111 z
b1 {
b0 |

#15000
1!
b1111 !!
1"!
1#!
b100 )
1*
b1111 -!
b1 .!
b1111 1
b11 2
b100 2!
b11 3!
b1000 4!
05!
b1111 6!
b111111111111111111111111111110001 7!
18
b11111111111111111111111111110001 8!
b1111 :
b1 ;
b1111 A
1B
b1111 K!
1M!
bx N!
b100 O
b1000 S
b1111 T
b100 W!
b1111 X
bx Z
1`!
b100 a!
1c!
b1111 e!
b100 f
b0 j
b11 k!

#20000
0!
0*
0`!
0c!

#25000
1!
b10100000000000100010011 #
b1000 )
1*
b1000 2!
b1100 4!
05!
b10100000000000100010011 H
b100 N
b1111 N!
b1000 O
1P!
b1 Q!
b1100 S
b11 U!
b1000 W!
1Y
b1111 Z
b100 ]!
b1 ^
1`!
b1000 a!
b11 b
b10100000000000100010011 b!
1c!
b1000 f
b0 j
b101 k
b101 o
b0 y
b101 z
b10 {
b0 |

#30000
0!
0*
0`!
0c!

#35000
1!
b101 !!
b10001000001000000110110011 #
b1100 )
1*
b100 +!
b101 -!
b10 .!
b101 1
b1 2
b1100 2!
b1 3!
b10000 4!
05!
b101 6!
b111111111111111111111111111111011 7!
b11111111111111111111111111111011 8!
b101 :
b10 ;
b101 A
b10001000001000000110110011 H
b101 K!
b100 M
b1000 N
b1100 O
b10000 S
b101 T
b1100 W!
b101 X
b1000 ]!
1`!
b1100 a!
b10001000001000000110110011 b!
1c!
b101 e!
b1100 f
b0 j
b0 k
b1 k!
b0 o
0p
0q
b1 y
b10 z
b11 {
b0 |
1~

#40000
0!
0*
0`!
0c!

#45000
1!
b0 !!
0"!
b10001000001100001000110011 #
0#!
b10000 )
1*
b1000 +!
b1 ,!
b10 -!
b11 .!
b1111 1
11!
b11 2
b10000 2!
b11 3!
b10100 4!
05!
b1001011 6!
b1010 7!
08
b100000000000000000000000000001010 8!
b1 9
b1001011 9!
b10 :
b11 ;
b1111 <!
b101 =!
b1001011 >!
b1001011 ?!
b0 A
0B
b10001000001100001000110011 H
b101 I
b1111 J
b1001011 K!
b1000 M
b1100 N
b101 N!
b10000 O
b10 Q!
b10100 S
b1111 T
b1 U!
b1111 W
b10000 W!
b101 X
b101 Z
b1100 ]!
b10 ^
1`!
b10000 a!
b1 b
b10001000001100001000110011 b!
1c!
b1111 e!
b10000 f
1g
b0 j
b11 k!
b1 y
b10 z
b100 {
b100 |

#50000
0!
0*
0`!
0c!

#55000
1!
b10001000001110001010110011 #
b10100 )
1*
b1100 +!
b100 .!
b100 /!
b10100 2!
b11000 4!
05
05!
b0 6!
b0 9!
b100 ;
0;!
b100 <
b0 ?!
1@!
1G
b10011 H
1J!
1K
b0 K!
1L
b1100 M
b10000 N
b1001011 N!
b10100 O
b11 Q!
b11000 S
b11 U!
b10100 W!
b1001011 Z
b10000 ]!
b11 ^
1`!
b10100 a!
b11 b
b10001000001110001010110011 b!
1c!
b10100 f
b0 j
1p
1q
b0 y
b0 z
b0 {
b0 |
0~

#60000
0!
0*
0`!
0c!

#65000
1!
b110000000000001100010011 #
1*
b1111 6!
b1111 9!
b1 A!
b11111 B!
b1111 C!
b101 D!
b10001000001110001010110011 H
0J!
b1111 K!
1`!
b110000000000001100010011 b!
1c!
b10001000001110001010110011 m
1n
0p
0q
b1 y
b10 z
b101 {
b110 |
1~

#70000
0!
0*
0`!
0c!

#75000
1!
1*
b11110 B!
1`!
1c!

#80000
0!
0*
0`!
0c!

#85000
1!
1*
b11101 B!
1`!
1c!

#90000
0!
0*
0`!
0c!

#95000
1!
1*
b11100 B!
1`!
1c!

#100000
0!
0*
0`!
0c!

#105000
1!
1*
b11011 B!
1`!
1c!

#110000
0!
0*
0`!
0c!

#115000
1!
1*
b11010 B!
1`!
1c!

#120000
0!
0*
0`!
0c!

#125000
1!
1*
b11001 B!
1`!
1c!

#130000
0!
0*
0`!
0c!

#135000
1!
1*
b11000 B!
1`!
1c!

#140000
0!
0*
0`!
0c!

#145000
1!
1*
b10111 B!
1`!
1c!

#150000
0!
0*
0`!
0c!

#155000
1!
1*
b10110 B!
1`!
1c!

#160000
0!
0*
0`!
0c!

#165000
1!
1*
b10101 B!
1`!
1c!

#170000
0!
0*
0`!
0c!

#175000
1!
1*
b10100 B!
1`!
1c!

#180000
0!
0*
0`!
0c!

#185000
1!
1*
b10011 B!
1`!
1c!

#190000
0!
0*
0`!
0c!

#195000
1!
1*
b10010 B!
1`!
1c!

#200000
0!
0*
0`!
0c!

#205000
1!
1*
b10001 B!
1`!
1c!

#210000
0!
0*
0`!
0c!

#215000
1!
1*
b10000 B!
1`!
1c!

#220000
0!
0*
0`!
0c!

#225000
1!
1*
b1111 B!
1`!
1c!

#230000
0!
0*
0`!
0c!

#235000
1!
1*
b1110 B!
1`!
1c!

#240000
0!
0*
0`!
0c!

#245000
1!
1*
b1101 B!
1`!
1c!

#250000
0!
0*
0`!
0c!

#255000
1!
1*
b1100 B!
1`!
1c!

#260000
0!
0*
0`!
0c!

#265000
1!
1*
b1011 B!
1`!
1c!

#270000
0!
0*
0`!
0c!

#275000
1!
1*
b1010 B!
1`!
1c!

#280000
0!
0*
0`!
0c!

#285000
1!
1*
b1001 B!
1`!
1c!

#290000
0!
0*
0`!
0c!

#295000
1!
1*
b1000 B!
1`!
1c!

#300000
0!
0*
0`!
0c!

#305000
1!
1*
b111 B!
1`!
1c!

#310000
0!
0*
0`!
0c!

#315000
1!
1*
b110 B!
1`!
1c!

#320000
0!
0*
0`!
0c!

#325000
1!
1*
b101 B!
1`!
1c!

#330000
0!
0*
0`!
0c!

#335000
1!
1*
b100 B!
1`!
1c!

#340000
0!
0*
0`!
0c!

#345000
1!
1*
b11 B!
1`!
1c!

#350000
0!
0*
0`!
0c!

#355000
1!
1*
b111 6!
b111 9!
b10 B!
b111 C!
b1 E!
b111 K!
1`!
1c!

#360000
0!
0*
0`!
0c!

#365000
1!
1*
b11 6!
b11 9!
b1 B!
b11 C!
b11 E!
b11 K!
1`!
1c!

#370000
0!
0*
0`!
0c!

#375000
1!
1*
b0 B!
b10 E!
1`!
1c!

#380000
0!
0*
0`!
0c!

#385000
1!
1*
b10 A!
b0 E!
1`!
1c!

#390000
0!
0*
0`!
0c!

#395000
1!
1*
15
1:!
b0 A!
0G
0K
0L
1`!
1c!

#400000
0!
0*
0`!
0c!

#405000
1!
b11000 )
1*
b10000 +!
b101 .!
b110 /!
b11000 2!
b11100 4!
05
05!
0:!
b101 ;
b110 <
1G
b10011 H
1J!
1K
1L
b10000 M
b10100 N
b11 N!
b11000 O
b100 Q!
b11100 S
b100 V!
b11000 W!
b11 Z
b100 [
b0xxxxxxxx \!
b10100 ]!
b100 ^
1`!
b11000 a!
1c!
b0xxxxxxxx e
b11000 f
b0 j
0n
1p
1q
b0 y
b0 z
b0 {
b0 |
0~

#410000
0!
0*
0`!
0c!

#415000
1!
b11100000000001110010011 #
1*
b0 6!
b0 9!
b1 A!
b11111 B!
b1111 C!
b110000000000001100010011 H
1H!
0J!
b0 K!
1`!
b11100000000001110010011 b!
1c!
b1100 k
b110000000000001100010011 m
1n
b1100 o
b0 y
b1100 z
b110 {
b0 |

#420000
0!
0*
0`!
0c!

#425000
1!
1*
b11110 B!
1`!
1c!

#430000
0!
0*
0`!
0c!

#435000
1!
1*
b11101 B!
1`!
1c!

#440000
0!
0*
0`!
0c!

#445000
1!
1*
b11100 B!
1`!
1c!

#450000
0!
0*
0`!
0c!

#455000
1!
1*
b11011 B!
1`!
1c!

#460000
0!
0*
0`!
0c!

#465000
1!
1*
b11010 B!
1`!
1c!

#470000
0!
0*
0`!
0c!

#475000
1!
1*
b11001 B!
1`!
1c!

#480000
0!
0*
0`!
0c!

#485000
1!
1*
b11000 B!
1`!
1c!

#490000
0!
0*
0`!
0c!

#495000
1!
1*
b10111 B!
1`!
1c!

#500000
0!
0*
0`!
0c!

#505000
1!
1*
b10110 B!
1`!
1c!

#510000
0!
0*
0`!
0c!

#515000
1!
1*
b10101 B!
1`!
1c!

#520000
0!
0*
0`!
0c!

#525000
1!
1*
b10100 B!
1`!
1c!

#530000
0!
0*
0`!
0c!

#535000
1!
1*
b10011 B!
1`!
1c!

#540000
0!
0*
0`!
0c!

#545000
1!
1*
b10010 B!
1`!
1c!

#550000
0!
0*
0`!
0c!

#555000
1!
1*
b10001 B!
1`!
1c!

#560000
0!
0*
0`!
0c!

#565000
1!
1*
b10000 B!
1`!
1c!

#570000
0!
0*
0`!
0c!

#575000
1!
1*
b1111 B!
1`!
1c!

#580000
0!
0*
0`!
0c!

#585000
1!
1*
b1110 B!
1`!
1c!

#590000
0!
0*
0`!
0c!

#595000
1!
1*
b1101 B!
1`!
1c!

#600000
0!
0*
0`!
0c!

#605000
1!
1*
b1100 B!
1`!
1c!

#610000
0!
0*
0`!
0c!

#615000
1!
1*
b1011 B!
1`!
1c!

#620000
0!
0*
0`!
0c!

#625000
1!
1*
b1010 B!
1`!
1c!

#630000
0!
0*
0`!
0c!

#635000
1!
1*
b1001 B!
1`!
1c!

#640000
0!
0*
0`!
0c!

#645000
1!
1*
b1000 B!
1`!
1c!

#650000
0!
0*
0`!
0c!

#655000
1!
1*
b111 B!
1`!
1c!

#660000
0!
0*
0`!
0c!

#665000
1!
1*
b110 B!
1`!
1c!

#670000
0!
0*
0`!
0c!

#675000
1!
1*
b101 B!
1`!
1c!

#680000
0!
0*
0`!
0c!

#685000
1!
1*
b100 B!
1`!
1c!

#690000
0!
0*
0`!
0c!

#695000
1!
1*
b11 B!
1`!
1c!

#700000
0!
0*
0`!
0c!

#705000
1!
1*
b1 6!
b1 9!
b10 B!
b111 C!
b1 E!
b1 K!
1`!
1c!

#710000
0!
0*
0`!
0c!

#715000
1!
1*
b11 6!
b11 9!
b1 B!
b11 C!
b11 E!
b11 K!
1`!
1c!

#720000
0!
0*
0`!
0c!

#725000
1!
1*
b10 6!
b10 9!
b0 B!
b10 E!
b10 K!
1`!
1c!

#730000
0!
0*
0`!
0c!

#735000
1!
1*
b0 6!
b0 9!
b10 A!
b0 E!
b0 K!
1`!
1c!

#740000
0!
0*
0`!
0c!

#745000
1!
1*
15
1:!
b0 A!
0G
0K
0L
1`!
1c!

#750000
0!
0*
0`!
0c!

#755000
1!
b1100 !!
1"!
1#!
b11100 )
1*
b10100 +!
b0 ,!
b1100 -!
b110 .!
b0 /!
b1100 1
01!
b0 2
b11100 2!
b0 3!
b100000 4!
05!
b1100 6!
b111111111111111111111111111110100 7!
18
b11111111111111111111111111110100 8!
b0 9
b0 9!
b1100 :
0:!
b110 ;
1;!
b0 <
b0 <!
b0 =!
b0 >!
b0 ?!
0@!
b1100 A
1B
b11100000000001110010011 H
b0 I
b0 J
b1100 K!
b10100 M
b11000 N
b0 N!
b11100 O
b101 Q!
b100000 S
b1100 T
b110 V!
b0 W
b11100 W!
b1100 X
b0 Z
b110 [
bx \!
b11000 ]!
b101 ^
1`!
b11100 a!
1c!
bx e
b1100 e!
b11100 f
0g
b0 j
b111 k
b11 k!
0n
b111 o
b0 y
b111 z
b111 {
b0 |

#760000
0!
0*
0`!
0c!

#765000
1!
b111 !!
b10011100110000010000110011 #
b100000 )
1*
b11000 +!
b111 -!
b111 .!
b111 1
b11 2
b100000 2!
b11 3!
b100100 4!
05!
b111 6!
b111111111111111111111111111111001 7!
b11111111111111111111111111111001 8!
b111 :
b111 ;
b111 A
b10011100110000010000110011 H
b111 K!
b11000 M
b11100 N
b1100 N!
b100000 O
b110 Q!
b100100 S
b111 T
b0 U!
b0 V!
b100000 W!
b111 X
b1100 Z
b0 [
b11100 ]!
b110 ^
1`!
b100000 a!
b0 b
b10011100110000010000110011 b!
1c!
b111 e!
b100000 f
b0 j
b0 k
b1 k!
b0 o
0p
0q
b110 y
b111 z
b1000 {
b0 |
1~

#770000
0!
0*
0`!
0c!

#775000
1!
b0 !!
0"!
b10011100110100010010110011 #
0#!
b100100 )
1*
b11100 +!
b110 ,!
b1000 .!
b1100 1
11!
b0 2
b100100 2!
b0 3!
b101000 4!
05!
b1010100 6!
b101 7!
08
b100000000000000000000000000000101 8!
b110 9
b1010100 9!
b1000 ;
b1100 <!
b111 =!
b1010100 >!
b1010100 ?!
b0 A
0B
b10011100110100010010110011 H
b111 I
b1100 J
b1010100 K!
b11100 M
b100000 N
b111 N!
b100100 O
b111 Q!
b101000 S
b1100 T
b11 U!
b1100 W
b100100 W!
b111 Z
b100000 ]!
b111 ^
1`!
b100100 a!
b11 b
b10011100110100010010110011 b!
1c!
b1100 e!
b100100 f
1g
b0 j
b11 k!
b110 y
b111 z
b1001 {
b100 |

#780000
0!
0*
0`!
0c!

#785000
1!
b10011100110110010100110011 #
b101000 )
1*
b100000 +!
b1001 .!
b100 /!
b101000 2!
b101100 4!
05
05!
b0 6!
b0 9!
b1001 ;
0;!
b100 <
b0 ?!
1@!
1G
b10011 H
1J!
1K
b0 K!
1L
b100000 M
b100100 N
b1010100 N!
b101000 O
b1000 Q!
b101100 S
b0 U!
b101000 W!
b1010100 Z
b100100 ]!
b1000 ^
1`!
b101000 a!
b0 b
b10011100110110010100110011 b!
1c!
b101000 f
b0 j
1p
1q
b0 y
b0 z
b0 {
b0 |
0~

#790000
0!
0*
0`!
0c!

#795000
1!
b1100011 #
1*
b1100 6!
b1100 9!
b1 A!
b11111 B!
b1100 C!
b111 D!
b10011100110110010100110011 H
0H!
0J!
b1100 K!
1`!
b1100011 b!
1c!
b10011100110110010100110011 m
1n
0p
0q
b110 y
b111 z
b1010 {
b110 |
1~

#800000
0!
0*
0`!
0c!

#805000
1!
1*
b11110 B!
1`!
1c!

#810000
0!
0*
0`!
0c!

#815000
1!
1*
b11101 B!
1`!
1c!

#820000
0!
0*
0`!
0c!

#825000
1!
1*
b11100 B!
1`!
1c!

#830000
0!
0*
0`!
0c!

#835000
1!
1*
b11011 B!
1`!
1c!

#840000
0!
0*
0`!
0c!

#845000
1!
1*
b11010 B!
1`!
1c!

#850000
0!
0*
0`!
0c!

#855000
1!
1*
b11001 B!
1`!
1c!

#860000
0!
0*
0`!
0c!

#865000
1!
1*
b11000 B!
1`!
1c!

#870000
0!
0*
0`!
0c!

#875000
1!
1*
b10111 B!
1`!
1c!

#880000
0!
0*
0`!
0c!

#885000
1!
1*
b10110 B!
1`!
1c!

#890000
0!
0*
0`!
0c!

#895000
1!
1*
b10101 B!
1`!
1c!

#900000
0!
0*
0`!
0c!

#905000
1!
1*
b10100 B!
1`!
1c!

#910000
0!
0*
0`!
0c!

#915000
1!
1*
b10011 B!
1`!
1c!

#920000
0!
0*
0`!
0c!

#925000
1!
1*
b10010 B!
1`!
1c!

#930000
0!
0*
0`!
0c!

#935000
1!
1*
b10001 B!
1`!
1c!

#940000
0!
0*
0`!
0c!

#945000
1!
1*
b10000 B!
1`!
1c!

#950000
0!
0*
0`!
0c!

#955000
1!
1*
b1111 B!
1`!
1c!

#960000
0!
0*
0`!
0c!

#965000
1!
1*
b1110 B!
1`!
1c!

#970000
0!
0*
0`!
0c!

#975000
1!
1*
b1101 B!
1`!
1c!

#980000
0!
0*
0`!
0c!

#985000
1!
1*
b1100 B!
1`!
1c!

#990000
0!
0*
0`!
0c!

#995000
1!
1*
b1011 B!
1`!
1c!

#1000000
0!
0*
0`!
0c!

#1005000
1!
1*
b1010 B!
1`!
1c!

#1010000
0!
0*
0`!
0c!

#1015000
1!
1*
b1001 B!
1`!
1c!

#1020000
0!
0*
0`!
0c!

#1025000
1!
1*
b1000 B!
1`!
1c!

#1030000
0!
0*
0`!
0c!

#1035000
1!
1*
b111 B!
1`!
1c!

#1040000
0!
0*
0`!
0c!

#1045000
1!
1*
b110 B!
1`!
1c!

#1050000
0!
0*
0`!
0c!

#1055000
1!
1*
b101 B!
1`!
1c!

#1060000
0!
0*
0`!
0c!

#1065000
1!
1*
b100 B!
1`!
1c!

#1070000
0!
0*
0`!
0c!

#1075000
1!
1*
b11 B!
1`!
1c!

#1080000
0!
0*
0`!
0c!

#1085000
1!
1*
b100 6!
b100 9!
b10 B!
b100 C!
b1 E!
b100 K!
1`!
1c!

#1090000
0!
0*
0`!
0c!

#1095000
1!
1*
b0 6!
b0 9!
b1 B!
b0 C!
b11 E!
b0 K!
1`!
1c!

#1100000
0!
0*
0`!
0c!

#1105000
1!
1*
b0 B!
b110 E!
1`!
1c!

#1110000
0!
0*
0`!
0c!

