uart/uart_test.vcd
$date
   Fri Apr 10 15:47:33 2026
$end

$version
  2025.2
  $dumpfile ("uart_test.vcd") 
$end

$timescale
  1ps
$end

$scope module tb_uart $end
$var reg 1 ! clk $end
$var reg 1 " rst $end
$var reg 1 # rx_pin $end
$var reg 8 $ tx_data [7:0] $end
$var reg 1 % tx_en $end
$var wire 1 & tx_pin $end
$var wire 8 ' rx_data [7:0] $end
$var wire 1 ( rx_ready $end
$var reg 8 ) rx_data_latched [7:0] $end
$var reg 1 * rx_received $end
$scope module dut $end
$var wire 1 + clk $end
$var wire 1 , rst $end
$var wire 1 - rx_pin $end
$var wire 1 & tx_pin $end
$var wire 8 . tx_data [7:0] $end
$var wire 1 / tx_en $end
$var wire 1 0 tx_busy $end
$var wire 8 ' rx_data [7:0] $end
$var wire 1 ( rx_ready $end
$var wire 14 1 bram_write_addr [13:0] $end
$var wire 8 2 bram_write_data [7:0] $end
$var wire 1 3 bram_we $end
$var wire 1 4 image_loaded $end
$var wire 1 5 tx_done_w $end
$var reg 1 6 busy_reg $end
$scope module u_rx $end
$var wire 1 + clk $end
$var wire 1 , rst $end
$var wire 1 - rx_serial $end
$var reg 1 7 rx_dv $end
$var reg 8 8 rx_byte [7:0] $end
$var reg 3 9 state [2:0] $end
$var reg 8 : count [7:0] $end
$var reg 3 ; index [2:0] $end
$upscope $end
$scope module u_tx $end
$var wire 1 + clk $end
$var wire 1 , rst $end
$var wire 1 / tx_start $end
$var wire 8 . tx_byte [7:0] $end
$var reg 1 < tx_serial $end
$var reg 1 = tx_done $end
$var reg 3 > state [2:0] $end
$var reg 8 ? count [7:0] $end
$var reg 3 @ index [2:0] $end
$upscope $end
$scope module u_bram_ctrl $end
$var wire 1 + clk $end
$var wire 1 A reset_n $end
$var wire 1 ( rx_done $end
$var wire 8 ' rx_data [7:0] $end
$var reg 14 B write_addr [13:0] $end
$var reg 8 C write_data [7:0] $end
$var reg 1 D we $end
$var reg 1 E image_loaded $end
$upscope $end
$upscope $end
$upscope $end
$enddefinitions $end

#0
$dumpvars
0!
1"
1#
b0 $
0%
x&
bx '
x(
b11111111 )
0*
0+
1,
1-
b0 .
0/
x0
b0 1
b0 2
03
04
x5
x6
x7
bx 8
b0 9
b0 :
b0 ;
x<
x=
b0 >
b0 ?
b0 @
0A
b0 B
b0 C
0D
0E
$end

#5000
1!
1&
b0 '
0(
1+
00
05
06
07
b0 8
1<
0=

#10000
0!
0+

#15000
1!
1+

#20000
0!
0+

#25000
1!
1+

#30000
0!
0+

#35000
1!
0"
1+
0,
1A

#40000
0!
0+

#45000
1!
1+

#50000
0!
0+

#55000
1!
1+

#60000
0!
0+

#65000
1!
1+

#70000
0!
0+

#75000
1!
1+

#80000
0!
0+

#85000
1!
1+

#90000
0!
0+

#95000
1!
1+

#100000
0!
0+

#105000
1!
1+

#110000
0!
0+

#115000
1!
1+

#120000
0!
0+

#125000
1!
1+

#130000
0!
0+

#135000
1!
0#
1+
0-
b1 9

#140000
0!
0+

#145000
1!
1+
b1 :

#150000
0!
0+

#155000
1!
1+
b10 :

#160000
0!
0+

#165000
1!
1+
b11 :

#170000
0!
0+

#175000
1!
1+
b100 :

#180000
0!
0+

#185000
1!
1+
b101 :

#190000
0!
0+

#195000
1!
1+
b110 :

#200000
0!
0+

#205000
1!
1+
b111 :

#210000
0!
0+

#215000
1!
1+
b1000 :

#220000
0!
0+

#225000
1!
1+
b1001 :

#230000
0!
0+

#235000
1!
1+
b1010 :

#240000
0!
0+

#245000
1!
1+
b1011 :

#250000
0!
0+

#255000
1!
1+
b1100 :

#260000
0!
0+

#265000
1!
1+
b1101 :

#270000
0!
0+

#275000
1!
1+
b1110 :

#280000
0!
0+

#285000
1!
1+
b1111 :

#290000
0!
0+

#295000
1!
1+
b10000 :

#300000
0!
0+

#305000
1!
1+
b10001 :

#310000
0!
0+

#315000
1!
1+
b10010 :

#320000
0!
0+

#325000
1!
1+
b10011 :

#330000
0!
0+

#335000
1!
1+
b10100 :

#340000
0!
0+

#345000
1!
1+
b10101 :

#350000
0!
0+

#355000
1!
1+
b10110 :

#360000
0!
0+

#365000
1!
1+
b10111 :

#370000
0!
0+

#375000
1!
1+
b11000 :

#380000
0!
0+

#385000
1!
1+
b11001 :

#390000
0!
0+

#395000
1!
1+
b11010 :

#400000
0!
0+

#405000
1!
1+
b11011 :

#410000
0!
0+

#415000
1!
1+
b11100 :

#420000
0!
0+

#425000
1!
1+
b11101 :

#430000
0!
0+

#435000
1!
1+
b11110 :

#440000
0!
0+

#445000
1!
1+
b11111 :

#450000
0!
0+

#455000
1!
1+
b100000 :

#460000
0!
0+

#465000
1!
1+
b100001 :

#470000
0!
0+

#475000
1!
1+
b100010 :

#480000
0!
0+

#485000
1!
1+
b100011 :

#490000
0!
0+

#495000
1!
1+
b100100 :

#500000
0!
0+

#505000
1!
1+
b100101 :

#510000
0!
0+

#515000
1!
1+
b100110 :

#520000
0!
0+

#525000
1!
1+
b100111 :

#530000
0!
0+

#535000
1!
1+
b101000 :

#540000
0!
0+

#545000
1!
1+
b101001 :

#550000
0!
0+

#555000
1!
1+
b101010 :

#560000
0!
0+

#565000
1!
1+
b101011 :

#570000
0!
0+

#575000
1!
1+
b10 9
b0 :

#580000
0!
0+

#585000
1!
1+
b1 :

#590000
0!
0+

#595000
1!
1+
b10 :

#600000
0!
0+

#605000
1!
1+
b11 :

#610000
0!
0+

#615000
1!
1+
b100 :

#620000
0!
0+

#625000
1!
1+
b101 :

#630000
0!
0+

#635000
1!
1+
b110 :

#640000
0!
0+

#645000
1!
1+
b111 :

#650000
0!
0+

#655000
1!
1+
b1000 :

#660000
0!
0+

#665000
1!
1+
b1001 :

#670000
0!
0+

#675000
1!
1+
b1010 :

#680000
0!
0+

#685000
1!
1+
b1011 :

#690000
0!
0+

#695000
1!
1+
b1100 :

#700000
0!
0+

#705000
1!
1+
b1101 :

#710000
0!
0+

#715000
1!
1+
b1110 :

#720000
0!
0+

#725000
1!
1+
b1111 :

#730000
0!
0+

#735000
1!
1+
b10000 :

#740000
0!
0+

#745000
1!
1+
b10001 :

#750000
0!
0+

#755000
1!
1+
b10010 :

#760000
0!
0+

#765000
1!
1+
b10011 :

#770000
0!
0+

#775000
1!
1+
b10100 :

#780000
0!
0+

#785000
1!
1+
b10101 :

#790000
0!
0+

#795000
1!
1+
b10110 :

#800000
0!
0+

#805000
1!
1+
b10111 :

#810000
0!
0+

#815000
1!
1+
b11000 :

#820000
0!
0+

#825000
1!
1+
b11001 :

#830000
0!
0+

#835000
1!
1+
b11010 :

#840000
0!
0+

#845000
1!
1+
b11011 :

#850000
0!
0+

#855000
1!
1+
b11100 :

#860000
0!
0+

#865000
1!
1+
b11101 :

#870000
0!
0+

#875000
1!
1+
b11110 :

#880000
0!
0+

#885000
1!
1+
b11111 :

#890000
0!
0+

#895000
1!
1+
b100000 :

#900000
0!
0+

#905000
1!
1+
b100001 :

#910000
0!
0+

#915000
1!
1+
b100010 :

#920000
0!
0+

#925000
1!
1+
b100011 :

#930000
0!
0+

#935000
1!
1+
b100100 :

#940000
0!
0+

#945000
1!
1+
b100101 :

#950000
0!
0+

#955000
1!
1+
b100110 :

#960000
0!
0+

#965000
1!
1+
b100111 :

#970000
0!
0+

#975000
1!
1+
b101000 :

#980000
0!
0+

#985000
1!
1+
b101001 :

#990000
0!
0+

#995000
1!
1+
b101010 :

#1000000
0!
0+

#1005000
1!
1#
1+
1-
b101011 :

#1010000
0!
0+

#1015000
1!
1+
b101100 :

#1020000
0!
0+

#1025000
1!
1+
b101101 :

#1030000
0!
0+

#1035000
1!
1+
b101110 :

#1040000
0!
0+

#1045000
1!
1+
b101111 :

#1050000
0!
0+

#1055000
1!
1+
b110000 :

#1060000
0!
0+

#1065000
1!
1+
b110001 :

#1070000
0!
0+

#1075000
1!
1+
b110010 :

#1080000
0!
0+

#1085000
1!
1+
b110011 :

#1090000
0!
0+

#1095000
1!
1+
b110100 :

#1100000
0!
0+

#1105000
1!
1+
b110101 :

#1110000
0!
0+

#1115000
1!
1+
b110110 :

#1120000
0!
0+

#1125000
1!
1+
b110111 :

#1130000
0!
0+

#1135000
1!
1+
b111000 :

#1140000
0!
0+

#1145000
1!
1+
b111001 :

#1150000
0!
0+

#1155000
1!
1+
b111010 :

#1160000
0!
0+

#1165000
1!
1+
b111011 :

#1170000
0!
0+

#1175000
1!
1+
b111100 :

#1180000
0!
0+

#1185000
1!
1+
b111101 :

#1190000
0!
0+

#1195000
1!
1+
b111110 :

#1200000
0!
0+

#1205000
1!
1+
b111111 :

#1210000
0!
0+

#1215000
1!
1+
b1000000 :

#1220000
0!
0+

#1225000
1!
1+
b1000001 :

#1230000
0!
0+

#1235000
1!
1+
b1000010 :

#1240000
0!
0+

#1245000
1!
1+
b1000011 :

#1250000
0!
0+

#1255000
1!
1+
b1000100 :

#1260000
0!
0+

#1265000
1!
1+
b1000101 :

#1270000
0!
0+

#1275000
1!
1+
b1000110 :

#1280000
0!
0+

#1285000
1!
1+
b1000111 :

#1290000
0!
0+

#1295000
1!
1+
b1001000 :

#1300000
0!
0+

#1305000
1!
1+
b1001001 :

#1310000
0!
0+

#1315000
1!
1+
b1001010 :

#1320000
0!
0+

#1325000
1!
1+
b1001011 :

#1330000
0!
0+

#1335000
1!
1+
b1001100 :

#1340000
0!
0+

#1345000
1!
1+
b1001101 :

#1350000
0!
0+

#1355000
1!
1+
b1001110 :

#1360000
0!
0+

#1365000
1!
1+
b1001111 :

#1370000
0!
0+

#1375000
1!
1+
b1010000 :

#1380000
0!
0+

#1385000
1!
1+
b1010001 :

#1390000
0!
0+

#1395000
1!
1+
b1010010 :

#1400000
0!
0+

#1405000
1!
1+
b1010011 :

#1410000
0!
0+

#1415000
1!
1+
b1010100 :

#1420000
0!
0+

#1425000
1!
1+
b1010101 :

#1430000
0!
0+

#1435000
1!
1+
b1010110 :

#1440000
0!
0+

#1445000
1!
b1 '
1+
b1 8
b0 :
b1 ;

#1450000
0!
0+

#1455000
1!
1+
b1 :

#1460000
0!
0+

#1465000
1!
1+
b10 :

#1470000
0!
0+

#1475000
1!
1+
b11 :

#1480000
0!
0+

#1485000
1!
1+
b100 :

#1490000
0!
0+

#1495000
1!
1+
b101 :

#1500000
0!
0+

#1505000
1!
1+
b110 :

#1510000
0!
0+

#1515000
1!
1+
b111 :

#1520000
0!
0+

#1525000
1!
1+
b1000 :

#1530000
0!
0+

#1535000
1!
1+
b1001 :

#1540000
0!
0+

#1545000
1!
1+
b1010 :

#1550000
0!
0+

#1555000
1!
1+
b1011 :

#1560000
0!
0+

#1565000
1!
1+
b1100 :

#1570000
0!
0+

#1575000
1!
1+
b1101 :

#1580000
0!
0+

#1585000
1!
1+
b1110 :

#1590000
0!
0+

#1595000
1!
1+
b1111 :

#1600000
0!
0+

#1605000
1!
1+
b10000 :

#1610000
0!
0+

#1615000
1!
1+
b10001 :

#1620000
0!
0+

#1625000
1!
1+
b10010 :

#1630000
0!
0+

#1635000
1!
1+
b10011 :

#1640000
0!
0+

#1645000
1!
1+
b10100 :

#1650000
0!
0+

#1655000
1!
1+
b10101 :

#1660000
0!
0+

#1665000
1!
1+
b10110 :

#1670000
0!
0+

#1675000
1!
1+
b10111 :

#1680000
0!
0+

#1685000
1!
1+
b11000 :

#1690000
0!
0+

#1695000
1!
1+
b11001 :

#1700000
0!
0+

#1705000
1!
1+
b11010 :

#1710000
0!
0+

#1715000
1!
1+
b11011 :

#1720000
0!
0+

#1725000
1!
1+
b11100 :

#1730000
0!
0+

#1735000
1!
1+
b11101 :

#1740000
0!
0+

#1745000
1!
1+
b11110 :

#1750000
0!
0+

#1755000
1!
1+
b11111 :

#1760000
0!
0+

#1765000
1!
1+
b100000 :

#1770000
0!
0+

#1775000
1!
1+
b100001 :

#1780000
0!
0+

#1785000
1!
1+
b100010 :

#1790000
0!
0+

#1795000
1!
1+
b100011 :

#1800000
0!
0+

#1805000
1!
1+
b100100 :

#1810000
0!
0+

#1815000
1!
1+
b100101 :

#1820000
0!
0+

#1825000
1!
1+
b100110 :

#1830000
0!
0+

#1835000
1!
1+
b100111 :

#1840000
0!
0+

#1845000
1!
1+
b101000 :

#1850000
0!
0+

#1855000
1!
1+
b101001 :

#1860000
0!
0+

#1865000
1!
1+
b101010 :

#1870000
0!
0+

#1875000
1!
0#
1+
0-
b101011 :

#1880000
0!
0+

#1885000
1!
1+
b101100 :

#1890000
0!
0+

#1895000
1!
1+
b101101 :

#1900000
0!
0+

#1905000
1!
1+
b101110 :

#1910000
0!
0+

#1915000
1!
1+
b101111 :

#1920000
0!
0+

#1925000
1!
1+
b110000 :

#1930000
0!
0+

#1935000
1!
1+
b110001 :

#1940000
0!
0+

#1945000
1!
1+
b110010 :

#1950000
0!
0+

#1955000
1!
1+
b110011 :

#1960000
0!
0+

#1965000
1!
1+
b110100 :

#1970000
0!
0+

#1975000
1!
1+
b110101 :

#1980000
0!
0+

#1985000
1!
1+
b110110 :

#1990000
0!
0+

#1995000
1!
1+
b110111 :

#2000000
0!
0+

#2005000
1!
1+
b111000 :

#2010000
0!
0+

#2015000
1!
1+
b111001 :

#2020000
0!
0+

#2025000
1!
1+
b111010 :

#2030000
0!
0+

#2035000
1!
1+
b111011 :

#2040000
0!
0+

#2045000
1!
1+
b111100 :

#2050000
0!
0+

#2055000
1!
1+
b111101 :

#2060000
0!
0+

#2065000
1!
1+
b111110 :

#2070000
0!
0+

#2075000
1!
1+
b111111 :

#2080000
0!
0+

#2085000
1!
1+
b1000000 :

#2090000
0!
0+

#2095000
1!
1+
b1000001 :

#2100000
0!
0+

#2105000
1!
1+
b1000010 :

#2110000
0!
0+

#2115000
1!
1+
b1000011 :

#2120000
0!
0+

#2125000
1!
1+
b1000100 :

#2130000
0!
0+

#2135000
1!
1+
b1000101 :

#2140000
0!
0+

#2145000
1!
1+
b1000110 :

#2150000
0!
0+

#2155000
1!
1+
b1000111 :

#2160000
0!
0+

#2165000
1!
1+
b1001000 :

#2170000
0!
0+

#2175000
1!
1+
b1001001 :

#2180000
0!
0+

#2185000
1!
1+
b1001010 :

#2190000
0!
0+

#2195000
1!
1+
b1001011 :

#2200000
0!
0+

#2205000
1!
1+
b1001100 :

#2210000
0!
0+

#2215000
1!
1+
b1001101 :

#2220000
0!
0+

#2225000
1!
1+
b1001110 :

#2230000
0!
0+

#2235000
1!
1+
b1001111 :

#2240000
0!
0+

#2245000
1!
1+
b1010000 :

#2250000
0!
0+

#2255000
1!
1+
b1010001 :

#2260000
0!
0+

#2265000
1!
1+
b1010010 :

#2270000
0!
0+

#2275000
1!
1+
b1010011 :

#2280000
0!
0+

#2285000
1!
1+
b1010100 :

#2290000
0!
0+

#2295000
1!
1+
b1010101 :

#2300000
0!
0+

#2305000
1!
1+
b1010110 :

#2310000
0!
0+

#2315000
1!
1+
b0 :
b10 ;

#2320000
0!
0+

#2325000
1!
1+
b1 :

#2330000
0!
0+

#2335000
1!
1+
b10 :

#2340000
0!
0+

#2345000
1!
1+
b11 :

#2350000
0!
0+

#2355000
1!
1+
b100 :

#2360000
0!
0+

#2365000
1!
1+
b101 :

#2370000
0!
0+

#2375000
1!
1+
b110 :

#2380000
0!
0+

#2385000
1!
1+
b111 :

#2390000
0!
0+

#2395000
1!
1+
b1000 :

#2400000
0!
0+

#2405000
1!
1+
b1001 :

#2410000
0!
0+

#2415000
1!
1+
b1010 :

#2420000
0!
0+

#2425000
1!
1+
b1011 :

#2430000
0!
0+

#2435000
1!
1+
b1100 :

#2440000
0!
0+

#2445000
1!
1+
b1101 :

#2450000
0!
0+

#2455000
1!
1+
b1110 :

#2460000
0!
0+

#2465000
1!
1+
b1111 :

#2470000
0!
0+

#2475000
1!
1+
b10000 :

#2480000
0!
0+

#2485000
1!
1+
b10001 :

#2490000
0!
0+

#2495000
1!
1+
b10010 :

#2500000
0!
0+

#2505000
1!
1+
b10011 :

#2510000
0!
0+

#2515000
1!
1+
b10100 :

#2520000
0!
0+

#2525000
1!
1+
b10101 :

#2530000
0!
0+

#2535000
1!
1+
b10110 :

#2540000
0!
0+

#2545000
1!
1+
b10111 :

#2550000
0!
0+

#2555000
1!
1+
b11000 :

#2560000
0!
0+

#2565000
1!
1+
b11001 :

#2570000
0!
0+

#2575000
1!
1+
b11010 :

#2580000
0!
0+

#2585000
1!
1+
b11011 :

#2590000
0!
0+

#2595000
1!
1+
b11100 :

#2600000
0!
0+

#2605000
1!
1+
b11101 :

#2610000
0!
0+

#2615000
1!
1+
b11110 :

#2620000
0!
0+

#2625000
1!
1+
b11111 :

#2630000
0!
0+

#2635000
1!
1+
b100000 :

#2640000
0!
0+

#2645000
1!
1+
b100001 :

#2650000
0!
0+

#2655000
1!
1+
b100010 :

#2660000
0!
0+

#2665000
1!
1+
b100011 :

#2670000
0!
0+

#2675000
1!
1+
b100100 :

#2680000
0!
0+

#2685000
1!
1+
b100101 :

#2690000
0!
0+

#2695000
1!
1+
b100110 :

#2700000
0!
0+

#2705000
1!
1+
b100111 :

#2710000
0!
0+

#2715000
1!
1+
b101000 :

#2720000
0!
0+

#2725000
1!
1+
b101001 :

#2730000
0!
0+

#2735000
1!
1+
b101010 :

#2740000
0!
0+

#2745000
1!
1+
b101011 :

#2750000
0!
0+

#2755000
1!
1+
b101100 :

#2760000
0!
0+

#2765000
1!
1+
b101101 :

#2770000
0!
0+

#2775000
1!
1+
b101110 :

#2780000
0!
0+

#2785000
1!
1+
b101111 :

#2790000
0!
0+

#2795000
1!
1+
b110000 :

#2800000
0!
0+

#2805000
1!
1+
b110001 :

#2810000
0!
0+

#2815000
1!
1+
b110010 :

#2820000
0!
0+

#2825000
1!
1+
b110011 :

#2830000
0!
0+

#2835000
1!
1+
b110100 :

#2840000
0!
0+

#2845000
1!
1+
b110101 :

#2850000
0!
0+

#2855000
1!
1+
b110110 :

#2860000
0!
0+

#2865000
1!
1+
b110111 :

#2870000
0!
0+

#2875000
1!
1+
b111000 :

#2880000
0!
0+

#2885000
1!
1+
b111001 :

#2890000
0!
0+

#2895000
1!
1+
b111010 :

#2900000
0!
0+

#2905000
1!
1+
b111011 :

#2910000
0!
0+

#2915000
1!
1+
b111100 :

#2920000
0!
0+

#2925000
1!
1+
b111101 :

#2930000
0!
0+

#2935000
1!
1+
b111110 :

#2940000
0!
0+

#2945000
1!
1+
b111111 :

#2950000
0!
0+

#2955000
1!
1+
b1000000 :

#2960000
0!
0+

#2965000
1!
1+
b1000001 :

#2970000
0!
0+

#2975000
1!
1+
b1000010 :

#2980000
0!
0+

#2985000
1!
1+
b1000011 :

#2990000
0!
0+

#2995000
1!
1+
b1000100 :

#3000000
0!
0+

#3005000
1!
1+
b1000101 :

#3010000
0!
0+

#3015000
1!
1+
b1000110 :

#3020000
0!
0+

#3025000
1!
1+
b1000111 :

#3030000
0!
0+

#3035000
1!
1+
b1001000 :

#3040000
0!
0+

#3045000
1!
1+
b1001001 :

#3050000
0!
0+

#3055000
1!
1+
b1001010 :

#3060000
0!
0+

#3065000
1!
1+
b1001011 :

#3070000
0!
0+

#3075000
1!
1+
b1001100 :

#3080000
0!
0+

#3085000
1!
1+
b1001101 :

#3090000
0!
0+

#3095000
1!
1+
b1001110 :

#3100000
0!
0+

#3105000
1!
1+
b1001111 :

#3110000
0!
0+

#3115000
1!
1+
b1010000 :

#3120000
0!
0+

#3125000
1!
1+
b1010001 :

#3130000
0!
0+

#3135000
1!
1+
b1010010 :

#3140000
0!
0+

#3145000
1!
1+
b1010011 :

#3150000
0!
0+

#3155000
1!
1+
b1010100 :

#3160000
0!
0+

#3165000
1!
1+
b1010101 :

#3170000
0!
0+

#3175000
1!
1+
b1010110 :

#3180000
0!
0+

#3185000
1!
1+
b0 :
b11 ;

#3190000
0!
0+

#3195000
1!
1+
b1 :

#3200000
0!
0+

#3205000
1!
1+
b10 :

#3210000
0!
0+

#3215000
1!
1+
b11 :

#3220000
0!
0+

#3225000
1!
1+
b100 :

#3230000
0!
0+

#3235000
1!
1+
b101 :

#3240000
0!
0+

#3245000
1!
1+
b110 :

#3250000
0!
0+

#3255000
1!
1+
b111 :

#3260000
0!
0+

#3265000
1!
1+
b1000 :

#3270000
0!
0+

#3275000
1!
1+
b1001 :

#3280000
0!
0+

#3285000
1!
1+
b1010 :

#3290000
0!
0+

#3295000
1!
1+
b1011 :

#3300000
0!
0+

#3305000
1!
1+
b1100 :

#3310000
0!
0+

#3315000
1!
1+
b1101 :

#3320000
0!
0+

#3325000
1!
1+
b1110 :

#3330000
0!
0+

#3335000
1!
1+
b1111 :

#3340000
0!
0+

#3345000
1!
1+
b10000 :

#3350000
0!
0+

#3355000
1!
1+
b10001 :

#3360000
0!
0+

#3365000
1!
1+
b10010 :

#3370000
0!
0+

#3375000
1!
1+
b10011 :

#3380000
0!
0+

#3385000
1!
1+
b10100 :

#3390000
0!
0+

#3395000
1!
1+
b10101 :

#3400000
0!
0+

#3405000
1!
1+
b10110 :

#3410000
0!
0+

#3415000
1!
1+
b10111 :

#3420000
0!
0+

#3425000
1!
1+
b11000 :

#3430000
0!
0+

#3435000
1!
1+
b11001 :

#3440000
0!
0+

#3445000
1!
1+
b11010 :

#3450000
0!
0+

#3455000
1!
1+
b11011 :

#3460000
0!
0+

#3465000
1!
1+
b11100 :

#3470000
0!
0+

#3475000
1!
1+
b11101 :

#3480000
0!
0+

#3485000
1!
1+
b11110 :

#3490000
0!
0+

#3495000
1!
1+
b11111 :

#3500000
0!
0+

#3505000
1!
1+
b100000 :

#3510000
0!
0+

#3515000
1!
1+
b100001 :

#3520000
0!
0+

#3525000
1!
1+
b100010 :

#3530000
0!
0+

#3535000
1!
1+
b100011 :

#3540000
0!
0+

#3545000
1!
1+
b100100 :

#3550000
0!
0+

#3555000
1!
1+
b100101 :

#3560000
0!
0+

#3565000
1!
1+
b100110 :

#3570000
0!
0+

#3575000
1!
1+
b100111 :

#3580000
0!
0+

#3585000
1!
1+
b101000 :

#3590000
0!
0+

#3595000
1!
1+
b101001 :

#3600000
0!
0+

#3605000
1!
1+
b101010 :

#3610000
0!
0+

#3615000
1!
1+
b101011 :

#3620000
0!
0+

#3625000
1!
1+
b101100 :

#3630000
0!
0+

#3635000
1!
1+
b101101 :

#3640000
0!
0+

#3645000
1!
1+
b101110 :

#3650000
0!
0+

#3655000
1!
1+
b101111 :

#3660000
0!
0+

#3665000
1!
1+
b110000 :

#3670000
0!
0+

#3675000
1!
1+
b110001 :

#3680000
0!
0+

#3685000
1!
1+
b110010 :

#3690000
0!
0+

#3695000
1!
1+
b110011 :

#3700000
0!
0+

#3705000
1!
1+
b110100 :

#3710000
0!
0+

#3715000
1!
1+
b110101 :

#3720000
0!
0+

#3725000
1!
1+
b110110 :

#3730000
0!
0+

#3735000
1!
1+
b110111 :

#3740000
0!
0+

#3745000
1!
1+
b111000 :

#3750000
0!
0+

#3755000
1!
1+
b111001 :

#3760000
0!
0+

#3765000
1!
1+
b111010 :

#3770000
0!
0+

#3775000
1!
1+
b111011 :

#3780000
0!
0+

#3785000
1!
1+
b111100 :

#3790000
0!
0+

#3795000
1!
1+
b111101 :

#3800000
0!
0+

#3805000
1!
1+
b111110 :

#3810000
0!
0+

#3815000
1!
1+
b111111 :

#3820000
0!
0+

#3825000
1!
1+
b1000000 :

#3830000
0!
0+

#3835000
1!
1+
b1000001 :

#3840000
0!
0+

#3845000
1!
1+
b1000010 :

#3850000
0!
0+

#3855000
1!
1+
b1000011 :

#3860000
0!
0+

#3865000
1!
1+
b1000100 :

#3870000
0!
0+

#3875000
1!
1+
b1000101 :

#3880000
0!
0+

#3885000
1!
1+
b1000110 :

#3890000
0!
0+

#3895000
1!
1+
b1000111 :

#3900000
0!
0+

#3905000
1!
1+
b1001000 :

#3910000
0!
0+

#3915000
1!
1+
b1001001 :

#3920000
0!
0+

#3925000
1!
1+
b1001010 :

#3930000
0!
0+

#3935000
1!
1+
b1001011 :

#3940000
0!
0+

#3945000
1!
1+
b1001100 :

#3950000
0!
0+

#3955000
1!
1+
b1001101 :

#3960000
0!
0+

#3965000
1!
1+
b1001110 :

#3970000
0!
0+

#3975000
1!
1+
b1001111 :

#3980000
0!
0+

#3985000
1!
1+
b1010000 :

#3990000
0!
0+

#3995000
1!
1+
b1010001 :

#4000000
0!
0+

#4005000
1!
1+
b1010010 :

#4010000
0!
0+

#4015000
1!
1+
b1010011 :

#4020000
0!
0+

#4025000
1!
1+
b1010100 :

#4030000
0!
0+

#4035000
1!
1+
b1010101 :

#4040000
0!
0+

#4045000
1!
1+
b1010110 :

#4050000
0!
0+

#4055000
1!
1+
b0 :
b100 ;

#4060000
0!
0+

#4065000
1!
1+
b1 :

#4070000
0!
0+

#4075000
1!
1+
b10 :

#4080000
0!
0+

#4085000
1!
1+
b11 :

#4090000
0!
0+

#4095000
1!
1+
b100 :

#4100000
0!
0+

#4105000
1!
1+
b101 :

#4110000
0!
0+

#4115000
1!
1+
b110 :

#4120000
0!
0+

#4125000
1!
1+
b111 :

#4130000
0!
0+

#4135000
1!
1+
b1000 :

#4140000
0!
0+

#4145000
1!
1+
b1001 :

#4150000
0!
0+

#4155000
1!
1+
b1010 :

#4160000
0!
0+

#4165000
1!
1+
b1011 :

#4170000
0!
0+

#4175000
1!
1+
b1100 :

#4180000
0!
0+

#4185000
1!
1+
b1101 :

#4190000
0!
0+

#4195000
1!
1+
b1110 :

#4200000
0!
0+

#4205000
1!
1+
b1111 :

#4210000
0!
0+

#4215000
1!
1+
b10000 :

#4220000
0!
0+

#4225000
1!
1+
b10001 :

#4230000
0!
0+

#4235000
1!
1+
b10010 :

#4240000
0!
0+

#4245000
1!
1+
b10011 :

#4250000
0!
0+

#4255000
1!
1+
b10100 :

#4260000
0!
0+

#4265000
1!
1+
b10101 :

#4270000
0!
0+

#4275000
1!
1+
b10110 :

#4280000
0!
0+

#4285000
1!
1+
b10111 :

#4290000
0!
0+

#4295000
1!
1+
b11000 :

#4300000
0!
0+

#4305000
1!
1+
b11001 :

#4310000
0!
0+

#4315000
1!
1+
b11010 :

#4320000
0!
0+

#4325000
1!
1+
b11011 :

#4330000
0!
0+

#4335000
1!
1+
b11100 :

#4340000
0!
0+

#4345000
1!
1+
b11101 :

#4350000
0!
0+

#4355000
1!
1+
b11110 :

#4360000
0!
0+

#4365000
1!
1+
b11111 :

#4370000
0!
0+

#4375000
1!
1+
b100000 :

#4380000
0!
0+

#4385000
1!
1+
b100001 :

#4390000
0!
0+

#4395000
1!
1+
b100010 :

#4400000
0!
0+

#4405000
1!
1+
b100011 :

#4410000
0!
0+

#4415000
1!
1+
b100100 :

#4420000
0!
0+

#4425000
1!
1+
b100101 :

#4430000
0!
0+

#4435000
1!
1+
b100110 :

#4440000
0!
0+

#4445000
1!
1+
b100111 :

#4450000
0!
0+

#4455000
1!
1+
b101000 :

#4460000
0!
0+

#4465000
1!
1+
b101001 :

#4470000
0!
0+

#4475000
1!
1+
b101010 :

#4480000
0!
0+

#4485000
1!
1+
b101011 :

#4490000
0!
0+

#4495000
1!
1+
b101100 :

#4500000
0!
0+

#4505000
1!
1+
b101101 :

#4510000
0!
0+

#4515000
1!
1+
b101110 :

#4520000
0!
0+

#4525000
1!
1+
b101111 :

#4530000
0!
0+

#4535000
1!
1+
b110000 :

#4540000
0!
0+

#4545000
1!
1+
b110001 :

#4550000
0!
0+

#4555000
1!
1+
b110010 :

#4560000
0!
0+

#4565000
1!
1+
b110011 :

#4570000
0!
0+

#4575000
1!
1+
b110100 :

#4580000
0!
0+

#4585000
1!
1+
b110101 :

#4590000
0!
0+

#4595000
1!
1+
b110110 :

#4600000
0!
0+

#4605000
1!
1+
b110111 :

#4610000
0!
0+

#4615000
1!
1+
b111000 :

#4620000
0!
0+

#4625000
1!
1+
b111001 :

#4630000
0!
0+

#4635000
1!
1+
b111010 :

#4640000
0!
0+

#4645000
1!
1+
b111011 :

#4650000
0!
0+

#4655000
1!
1+
b111100 :

#4660000
0!
0+

#4665000
1!
1+
b111101 :

#4670000
0!
0+

#4675000
1!
1+
b111110 :

#4680000
0!
0+

#4685000
1!
1+
b111111 :

#4690000
0!
0+

#4695000
1!
1+
b1000000 :

#4700000
0!
0+

#4705000
1!
1+
b1000001 :

#4710000
0!
0+

#4715000
1!
1+
b1000010 :

#4720000
0!
0+

#4725000
1!
1+
b1000011 :

#4730000
0!
0+

#4735000
1!
1+
b1000100 :

#4740000
0!
0+

#4745000
1!
1+
b1000101 :

#4750000
0!
0+

#4755000
1!
1+
b1000110 :

#4760000
0!
0+

#4765000
1!
1+
b1000111 :

#4770000
0!
0+

#4775000
1!
1+
b1001000 :

#4780000
0!
0+

#4785000
1!
1+
b1001001 :

#4790000
0!
0+

#4795000
1!
1+
b1001010 :

#4800000
0!
0+

#4805000
1!
1+
b1001011 :

#4810000
0!
0+

#4815000
1!
1+
b1001100 :

#4820000
0!
0+

#4825000
1!
1+
b1001101 :

#4830000
0!
0+

#4835000
1!
1+
b1001110 :

#4840000
0!
0+

#4845000
1!
1+
b1001111 :

#4850000
0!
0+

#4855000
1!
1+
b1010000 :

#4860000
0!
0+

#4865000
1!
1+
b1010001 :

#4870000
0!
0+

#4875000
1!
1+
b1010010 :

#4880000
0!
0+

#4885000
1!
1+
b1010011 :

#4890000
0!
0+

#4895000
1!
1+
b1010100 :

#4900000
0!
0+

#4905000
1!
1+
b1010101 :

#4910000
0!
0+

#4915000
1!
1+
b1010110 :

#4920000
0!
0+

#4925000
1!
1+
b0 :
b101 ;

#4930000
0!
0+

#4935000
1!
1+
b1 :

#4940000
0!
0+

#4945000
1!
1+
b10 :

#4950000
0!
0+

#4955000
1!
1+
b11 :

#4960000
0!
0+

#4965000
1!
1+
b100 :

#4970000
0!
0+

